0	0.526996
1	1.04806
2	1.8394
3	2.84891
4	3.894
5	4.69707
6	5
7	4.69707
8	3.894
9	2.84891
10	1.8394
11	1.04806
12	0.526996
13	0.233853
14	0.0915782
15	0.0316486
16	0.00965227
17	0.00259789
18	0.000617274
19	0.000132241
20	5.38299e-05
21	0.000250802
22	0.00163293
23	0.00864242
24	0.0366395
25	0.124386
26	0.338152
27	0.736191
28	1.28374
29	1.79374
30	2.01103
31	1.81735
32	1.34647
33	0.872833
34	0.608593
35	0.617358
36	0.865878
37	1.29622
38	1.84716
39	2.44211
40	2.98253
41	3.36277
42	3.5
43	3.36276
44	2.9825
45	2.44187
46	1.84552
47	1.28758
48	0.829247
49	0.493004
